<svg width="18" height="11" viewBox="0 0 18 11" fill="none" xmlns="http://www.w3.org/2000/svg">
<path d="M0 5.5005C0 5.33821 0.0647204 5.18268 0.17871 5.06773C0.293665 4.95374 0.449191 4.88902 0.611481 4.88902H15.0224L11.1768 1.04431C11.0618 0.929356 10.9971 0.774796 10.9971 0.61154C10.9971 0.44925 11.0618 0.293702 11.1768 0.179712C11.2917 0.0647568 11.4472 0 11.6095 0C11.7718 0 11.9273 0.0647568 12.0423 0.179712L16.9303 5.06773C16.9873 5.12376 17.0317 5.1914 17.0626 5.26578C17.0935 5.34016 17.109 5.41936 17.109 5.5005C17.109 5.58068 17.0935 5.6599 17.0626 5.73428C17.0317 5.80866 16.9873 5.8763 16.9303 5.93233L12.0423 10.8213C11.9273 10.9353 11.7718 11 11.6095 11C11.4472 11 11.2917 10.9353 11.1768 10.8213C11.0618 10.7063 10.9971 10.5508 10.9971 10.3885C10.9971 10.2262 11.0618 10.0707 11.1768 9.95575L15.0224 6.11104H0.611481C0.449191 6.11104 0.293665 6.04632 0.17871 5.93233C0.0647204 5.81737 0 5.66183 0 5.5005Z" fill="black"/>
</svg>
