<svg width="150" height="151" viewBox="0 0 150 151" fill="none" xmlns="http://www.w3.org/2000/svg">
<path d="M117.013 98.3178C116.079 98.3178 115.457 98.0066 114.834 97.3842C114.212 96.7618 113.901 96.1394 113.901 95.2058C113.901 94.2722 114.212 93.6498 114.834 93.0274C115.457 92.405 116.079 92.0938 117.013 92.0938C117.946 92.0938 118.569 92.405 119.191 93.0274C119.813 93.6498 120.125 94.2722 120.125 95.2058C120.125 96.1394 119.813 96.7618 119.191 97.3842C118.569 98.0066 117.946 98.3178 117.013 98.3178Z" fill="white"/>
<path d="M119.502 100.496V118.546L114.523 120.102V100.496H119.502Z" fill="white"/>
<path d="M51.3487 92.7161V120.102H46.3694V93.9609L51.3487 92.7161Z" fill="white"/>
<path fill-rule="evenodd" clip-rule="evenodd" d="M22.718 127.882V100.496H27.6973V102.052C28.3197 101.43 29.2533 100.807 30.1869 100.496C31.1204 100.185 32.0539 100.185 32.9874 100.185C34.2323 100.185 35.7885 100.496 36.7221 101.119C36.9787 101.29 37.2589 101.461 37.5496 101.638C38.3164 102.107 39.1573 102.62 39.8342 103.297C40.7678 104.231 41.3902 105.164 42.0126 106.409C42.635 107.654 42.635 108.899 42.635 110.455C42.635 111.699 42.3238 113.255 41.7014 114.5C41.079 115.745 40.4566 116.679 39.523 117.612C38.5894 118.546 37.6558 119.168 36.411 119.791C35.1662 120.413 33.9213 120.413 32.3653 120.413C31.4317 120.413 30.4981 120.413 29.5645 120.102C28.6309 119.791 27.6973 119.48 27.0749 118.857V127.882H22.718ZM32.3653 104.542C31.8514 104.542 31.3374 104.636 30.8753 104.721C30.4981 104.79 30.1554 104.853 29.8757 104.853C28.9421 105.164 28.3197 105.475 27.6973 106.098V113.878C28.3197 114.5 28.9421 114.811 29.8757 115.123C30.0706 115.188 30.2519 115.253 30.4253 115.315C31.0827 115.55 31.6266 115.745 32.3653 115.745C33.9213 115.745 35.1662 115.123 36.411 114.189C37.6558 113.255 37.967 111.699 37.967 110.143C37.967 108.587 37.3446 107.343 36.411 106.098C35.4774 105.164 33.9213 104.542 32.3653 104.542Z" fill="white"/>
<path fill-rule="evenodd" clip-rule="evenodd" d="M56.6393 118.857C57.8841 119.791 59.4401 120.413 61.6186 120.413C62.8634 120.413 64.4194 120.102 65.353 119.791C66.2866 119.48 66.909 119.169 67.8426 118.546V119.791H72.8219V107.032C72.8219 104.853 72.1995 102.986 70.6435 101.741C69.0875 100.496 66.909 99.8739 64.4194 99.8739C63.0904 99.8739 61.9884 100.101 60.7256 100.361C60.5099 100.406 60.2895 100.451 60.0625 100.496C58.8178 100.807 57.262 101.43 55.7061 102.052L57.573 105.787C58.5239 105.311 59.4748 105.017 60.287 104.766C60.538 104.689 60.7758 104.615 60.9962 104.542C62.241 104.231 62.8634 104.231 63.797 104.231C65.0418 104.231 66.2866 104.542 66.909 105.164C67.5315 105.787 67.8426 106.409 67.8426 107.654V109.521C67.6477 109.456 67.4664 109.391 67.2929 109.329C66.6356 109.094 66.0917 108.899 65.353 108.899C64.4195 108.588 63.7971 108.588 62.8636 108.588C60.374 108.588 58.5065 109.21 56.9505 110.144C55.3945 111.077 54.7721 112.633 54.7721 114.5C54.7721 116.368 55.3945 117.924 56.6393 118.857ZM60.3738 116.056C59.7514 115.434 59.4401 114.812 59.4401 114.189C59.4401 113.567 59.7514 112.633 60.3738 112.322C60.9962 112.011 61.9298 111.7 63.1746 111.7C63.4857 111.7 63.8747 111.777 64.2637 111.855C64.6526 111.933 65.0419 112.011 65.353 112.011C65.6642 112.166 65.9754 112.244 66.2866 112.322C66.5978 112.4 66.9091 112.478 67.2202 112.633V115.434L65.353 116.368C64.4195 116.679 63.7971 116.679 62.8636 116.679C61.93 116.679 60.9962 116.679 60.3738 116.056Z" fill="white"/>
<path d="M76.2448 120.102V100.496H81.224V102.052C81.8464 101.43 82.78 100.808 83.7136 100.496C84.6472 100.185 85.5808 99.8739 86.8256 99.8739C89.0041 99.8739 90.8713 100.496 92.4273 102.052C93.9833 103.608 94.6057 105.476 94.6057 107.654V119.791H89.6265V108.588C89.6265 107.343 89.3153 106.409 88.3817 105.787C87.7593 105.164 86.5145 104.542 85.5808 104.542C84.6472 104.542 84.0248 104.853 83.4024 105.164C82.78 105.476 82.1576 106.098 81.8464 106.72V120.102H76.2448Z" fill="white"/>
<path d="M100.208 104.853V114.5C100.208 116.367 100.83 117.923 101.764 118.857C103.008 119.791 104.564 120.413 106.743 120.413C106.872 120.413 107.107 120.36 107.383 120.297C107.774 120.209 108.245 120.102 108.61 120.102C109.232 120.102 109.855 120.102 110.477 119.791V115.745C110.322 115.745 110.088 115.823 109.855 115.901C109.621 115.978 109.388 116.056 109.232 116.056H107.988C107.054 116.056 106.12 115.745 105.809 115.434C105.498 115.123 105.187 114.5 105.187 113.567V104.853H110.788V100.496H105.187V94.272L100.208 95.5168V100.496H96.1619V104.853H100.208Z" fill="white"/>
<path fill-rule="evenodd" clip-rule="evenodd" d="M124.792 118.857C126.037 119.791 127.593 120.413 129.772 120.413C131.017 120.413 132.573 120.102 133.506 119.791C134.44 119.48 135.062 119.169 135.996 118.546V119.791H140.975V107.032C140.975 104.853 140.353 102.986 138.797 101.741C137.241 100.496 135.062 99.8739 132.573 99.8739C131.244 99.8739 130.142 100.101 128.879 100.361C128.663 100.405 128.443 100.451 128.216 100.496C126.971 100.808 125.415 101.43 123.859 102.052L125.726 105.787C126.677 105.311 127.628 105.017 128.44 104.766C128.691 104.689 128.929 104.615 129.149 104.542C130.394 104.231 131.017 104.231 131.95 104.231C133.195 104.231 134.44 104.542 135.062 105.164C135.685 105.787 135.996 106.409 135.996 107.654V109.521C135.801 109.456 135.62 109.391 135.446 109.329C134.789 109.094 134.245 108.899 133.506 108.899C132.573 108.588 131.95 108.588 131.017 108.588C128.527 108.588 126.66 109.21 125.104 110.144C123.548 111.077 122.925 112.633 122.925 114.5C122.925 116.368 123.548 117.924 124.792 118.857ZM128.527 116.056C127.905 115.434 127.593 114.812 127.593 114.189C127.593 113.567 127.905 112.633 128.527 112.322C129.149 112.011 130.083 111.7 131.328 111.7C131.639 111.7 132.028 111.777 132.417 111.855C132.806 111.933 133.195 112.011 133.506 112.011C133.817 112.166 134.129 112.244 134.44 112.322C134.751 112.4 135.062 112.478 135.373 112.633V115.434L133.506 116.368C132.573 116.679 131.95 116.679 131.017 116.679C130.083 116.679 129.149 116.679 128.527 116.056Z" fill="white"/>
<path d="M93.05 79.6456V79.9569C93.05 80.2681 93.05 80.5793 93.05 80.5793C93.05 80.8905 93.0499 81.5129 92.7387 81.8241C92.7387 82.1353 92.4275 82.4465 92.1163 83.0689C91.8051 83.6913 91.494 84.0025 90.8715 84.3137C90.2491 84.9361 89.0043 84.9361 88.3819 85.5585C87.7595 85.8697 86.8259 86.4921 86.2035 87.1145C84.3363 88.9817 84.3363 92.405 83.4026 94.8946C82.469 97.3842 78.1122 96.7618 79.357 93.0274C80.2906 90.5378 80.9131 88.3593 82.4691 86.4921C83.4027 85.2473 84.3363 84.6249 85.5811 83.6913C85.5811 83.6913 85.8923 83.3801 86.2035 83.3801C86.8259 83.0689 87.4483 82.7577 88.0707 82.4465C88.3819 82.4465 88.3819 82.4465 88.6931 82.1353C89.0043 81.8241 89.6267 81.8241 89.9379 81.5129C90.2491 81.5129 90.2492 81.2016 90.2492 80.8904C90.2492 80.5792 90.2492 80.268 90.2492 79.6456C90.2492 79.3344 90.2491 78.7121 89.9379 78.4008C89.9379 78.0896 89.9379 77.7784 89.6267 77.4672V77.156C89.6267 76.8448 89.3155 76.2224 89.3155 75.9112C89.3155 75.6 89.0043 75.2888 88.6931 74.6664C88.3819 74.3552 88.3819 73.7328 88.0707 73.4216C88.0707 73.1104 87.7595 72.7992 87.4483 72.488C87.4483 72.488 87.4483 72.488 87.1371 72.1768C86.8259 71.8656 86.5147 71.2431 86.2035 70.9319C85.5811 69.6871 84.6475 70.9319 84.6475 70.9319C83.7139 72.488 82.469 73.7328 81.2242 74.9776C80.2906 75.9112 78.7346 77.156 78.7346 78.712C78.7346 80.268 80.6018 82.1353 81.5354 83.0689C82.4691 84.0025 80.9131 86.4921 79.357 85.2473C77.4898 83.6913 75.6226 81.2016 75.6226 78.712C75.6226 76.2224 77.1786 74.6664 78.7346 73.1104C80.6018 71.5543 82.7802 69.6871 84.3363 67.8199C84.3363 67.5087 84.6475 67.5087 84.6475 67.5087C85.5811 66.2639 86.2035 65.9527 87.1371 67.5087C87.4483 67.8199 87.7595 68.1311 88.0707 68.7535C88.3819 69.0647 88.6931 69.6871 89.0043 69.9983C89.3155 70.3095 89.3155 70.3096 89.3155 70.6208C89.3155 70.6208 89.3155 70.9319 89.6267 70.9319C89.9379 71.2431 89.9379 71.8656 90.2492 72.1768C90.5604 72.488 90.5603 72.7992 90.8715 73.4216C90.8715 73.4216 90.8715 73.4216 90.8715 73.7328C90.8715 74.044 91.1827 74.3552 91.4939 74.9776C91.4939 75.2888 91.8052 75.6 91.8052 76.2224C91.8052 76.8448 92.1163 77.156 92.1163 77.4672C92.1163 77.7784 92.4276 78.0896 92.4276 78.712C93.05 78.712 93.05 79.3344 93.05 79.6456Z" fill="white"/>
<path d="M46 126.344H47.6482V125.62C47.6482 124.781 47.8898 124.134 48.3729 123.68C48.856 123.227 49.5523 123 50.4616 123C50.6606 123 50.8642 123.014 51.0726 123.043C51.281 123.063 51.461 123.092 51.6126 123.13V124.795C51.4326 124.757 51.2715 124.728 51.1295 124.708C50.9968 124.689 50.8547 124.679 50.7032 124.679C50.3337 124.679 50.0543 124.761 49.8649 124.926C49.6849 125.09 49.5949 125.336 49.5949 125.664V126.344H51.6126V128.009H49.5949V133.887H47.6482V128.009H46V126.344Z" fill="white"/>
<path d="M52.3659 130.123C52.3659 129.573 52.4653 129.061 52.6642 128.588C52.8726 128.106 53.1521 127.691 53.5026 127.343C53.8625 126.986 54.2841 126.706 54.7672 126.504C55.2503 126.301 55.7665 126.2 56.316 126.2C56.8654 126.2 57.3816 126.301 57.8647 126.504C58.3479 126.706 58.7647 126.986 59.1151 127.343C59.4751 127.691 59.7545 128.106 59.9535 128.588C60.1619 129.061 60.2661 129.573 60.2661 130.123C60.2661 130.673 60.1619 131.19 59.9535 131.672C59.7545 132.145 59.4751 132.555 59.1151 132.903C58.7647 133.25 58.3479 133.525 57.8647 133.728C57.3816 133.931 56.8654 134.032 56.316 134.032C55.7665 134.032 55.2503 133.931 54.7672 133.728C54.2841 133.525 53.8625 133.25 53.5026 132.903C53.1521 132.555 52.8726 132.145 52.6642 131.672C52.4653 131.19 52.3659 130.673 52.3659 130.123ZM56.316 132.309C56.8843 132.309 57.3674 132.097 57.7653 131.672C58.1631 131.248 58.3621 130.731 58.3621 130.123C58.3621 129.505 58.1631 128.984 57.7653 128.559C57.3674 128.135 56.8843 127.922 56.316 127.922C55.7476 127.922 55.2645 128.135 54.8666 128.559C54.4688 128.984 54.2699 129.505 54.2699 130.123C54.2699 130.731 54.4688 131.248 54.8666 131.672C55.2645 132.097 55.7476 132.309 56.316 132.309Z" fill="white"/>
<path d="M61.7468 133.887V126.344H63.6934V127.17C63.9303 126.841 64.2144 126.595 64.546 126.431C64.887 126.257 65.2612 126.171 65.6685 126.171C65.8579 126.18 66.0142 126.2 66.1374 126.229C66.27 126.248 66.3837 126.286 66.4784 126.344V128.082C66.3363 128.014 66.18 127.966 66.0095 127.937C65.839 127.898 65.6638 127.879 65.4838 127.879C65.1049 127.879 64.7544 127.976 64.4323 128.169C64.1197 128.362 63.8734 128.642 63.6934 129.008V133.887H61.7468Z" fill="white"/>
<path d="M74.0921 132.946C73.6374 133.323 73.1685 133.598 72.6854 133.771C72.2118 133.945 71.6813 134.032 71.094 134.032C70.5351 134.032 70.0094 133.931 69.5168 133.728C69.0337 133.525 68.6122 133.25 68.2522 132.903C67.9017 132.555 67.6223 132.145 67.4139 131.672C67.2149 131.19 67.1155 130.673 67.1155 130.123C67.1155 129.583 67.2102 129.076 67.3997 128.603C67.5986 128.12 67.8686 127.705 68.2096 127.358C68.5506 127.001 68.9532 126.721 69.4173 126.518C69.891 126.315 70.393 126.214 70.9235 126.214C71.4445 126.214 71.9276 126.32 72.3728 126.533C72.8275 126.735 73.2159 127.015 73.538 127.372C73.8695 127.729 74.1253 128.159 74.3052 128.661C74.4947 129.153 74.5894 129.689 74.5894 130.268V130.789H69.0763C69.2089 131.262 69.4647 131.643 69.8436 131.933C70.2225 132.222 70.6677 132.367 71.1793 132.367C71.5013 132.367 71.8045 132.314 72.0886 132.208C72.3728 132.102 72.6144 131.952 72.8133 131.759L74.0921 132.946ZM70.8809 127.85C70.4356 127.85 70.052 127.99 69.7299 128.27C69.4079 128.54 69.1853 128.907 69.0621 129.37H72.6854C72.5623 128.926 72.3349 128.564 72.0034 128.284C71.6813 127.995 71.3071 127.85 70.8809 127.85Z" fill="white"/>
<path d="M78.2043 133.887L75.0215 126.344H77.1386L79.1705 131.368L81.1882 126.344H83.2627L80.0799 133.887H78.2043Z" fill="white"/>
<path d="M90.6734 132.946C90.2187 133.323 89.7498 133.598 89.2667 133.771C88.793 133.945 88.2626 134.032 87.6753 134.032C87.1164 134.032 86.5906 133.931 86.0981 133.728C85.6149 133.525 85.1934 133.25 84.8334 132.903C84.483 132.555 84.2035 132.145 83.9951 131.672C83.7962 131.19 83.6967 130.673 83.6967 130.123C83.6967 129.583 83.7915 129.076 83.9809 128.603C84.1798 128.12 84.4498 127.705 84.7908 127.358C85.1318 127.001 85.5344 126.721 85.9986 126.518C86.4722 126.315 86.9743 126.214 87.5047 126.214C88.0257 126.214 88.5088 126.32 88.9541 126.533C89.4087 126.735 89.7971 127.015 90.1192 127.372C90.4507 127.729 90.7065 128.159 90.8865 128.661C91.0759 129.153 91.1707 129.689 91.1707 130.268V130.789H85.6576C85.7902 131.262 86.0459 131.643 86.4249 131.933C86.8038 132.222 87.249 132.367 87.7605 132.367C88.0826 132.367 88.3857 132.314 88.6699 132.208C88.9541 132.102 89.1956 131.952 89.3945 131.759L90.6734 132.946ZM87.4621 127.85C87.0169 127.85 86.6333 127.99 86.3112 128.27C85.9891 128.54 85.7665 128.907 85.6434 129.37H89.2667C89.1435 128.926 88.9162 128.564 88.5846 128.284C88.2626 127.995 87.8884 127.85 87.4621 127.85Z" fill="white"/>
<path d="M92.6475 133.887V126.344H94.5941V127.17C94.831 126.841 95.1151 126.595 95.4467 126.431C95.7877 126.257 96.1619 126.171 96.5692 126.171C96.7587 126.18 96.915 126.2 97.0381 126.229C97.1707 126.248 97.2844 126.286 97.3791 126.344V128.082C97.237 128.014 97.0807 127.966 96.9102 127.937C96.7397 127.898 96.5645 127.879 96.3845 127.879C96.0056 127.879 95.6551 127.976 95.333 128.169C95.0204 128.362 94.7741 128.642 94.5941 129.008V133.887H92.6475Z" fill="white"/>
<path d="M105.271 133.931C104.75 133.931 104.257 133.829 103.793 133.627C103.338 133.424 102.94 133.149 102.599 132.801C102.268 132.454 102.003 132.049 101.804 131.585C101.614 131.112 101.52 130.606 101.52 130.065C101.52 129.534 101.619 129.037 101.818 128.574C102.017 128.101 102.287 127.691 102.628 127.343C102.969 126.996 103.372 126.726 103.836 126.533C104.3 126.33 104.797 126.229 105.328 126.229C105.697 126.229 106.048 126.282 106.379 126.388C106.72 126.494 107.037 126.644 107.331 126.837V126.344H109.249V133.887C109.249 134.881 108.932 135.649 108.297 136.189C107.672 136.73 106.767 137 105.583 137C105.015 137 104.466 136.942 103.935 136.826C103.414 136.71 102.936 136.542 102.5 136.32L103.182 134.77C103.589 134.973 103.987 135.123 104.376 135.219C104.764 135.325 105.152 135.378 105.541 135.378C106.119 135.378 106.554 135.248 106.848 134.988C107.151 134.737 107.303 134.365 107.303 133.873V133.25C107.009 133.472 106.687 133.641 106.336 133.757C105.995 133.873 105.64 133.931 105.271 133.931ZM103.438 130.065C103.438 130.673 103.641 131.19 104.049 131.614C104.466 132.039 104.972 132.251 105.569 132.251C105.92 132.251 106.242 132.193 106.535 132.078C106.829 131.952 107.085 131.783 107.303 131.571V128.603C107.094 128.391 106.839 128.226 106.535 128.111C106.232 127.985 105.915 127.922 105.583 127.922C104.987 127.922 104.48 128.13 104.063 128.545C103.646 128.96 103.438 129.467 103.438 130.065Z" fill="white"/>
<path d="M111.067 133.887V126.344H113.014V127.17C113.251 126.841 113.535 126.595 113.866 126.431C114.207 126.257 114.581 126.171 114.989 126.171C115.178 126.18 115.334 126.2 115.458 126.229C115.59 126.248 115.704 126.286 115.799 126.344V128.082C115.657 128.014 115.5 127.966 115.33 127.937C115.159 127.898 114.984 127.879 114.804 127.879C114.425 127.879 114.075 127.976 113.753 128.169C113.44 128.362 113.194 128.642 113.014 129.008V133.887H111.067Z" fill="white"/>
<path d="M123.412 132.946C122.958 133.323 122.489 133.598 122.006 133.771C121.532 133.945 121.002 134.032 120.414 134.032C119.855 134.032 119.33 133.931 118.837 133.728C118.354 133.525 117.932 133.25 117.572 132.903C117.222 132.555 116.943 132.145 116.734 131.672C116.535 131.19 116.436 130.673 116.436 130.123C116.436 129.583 116.53 129.076 116.72 128.603C116.919 128.12 117.189 127.705 117.53 127.358C117.871 127.001 118.273 126.721 118.738 126.518C119.211 126.315 119.713 126.214 120.244 126.214C120.765 126.214 121.248 126.32 121.693 126.533C122.148 126.735 122.536 127.015 122.858 127.372C123.19 127.729 123.446 128.159 123.625 128.661C123.815 129.153 123.91 129.689 123.91 130.268V130.789H118.397C118.529 131.262 118.785 131.643 119.164 131.933C119.543 132.222 119.988 132.367 120.5 132.367C120.822 132.367 121.125 132.314 121.409 132.208C121.693 132.102 121.935 131.952 122.134 131.759L123.412 132.946ZM120.201 127.85C119.756 127.85 119.372 127.99 119.05 128.27C118.728 128.54 118.506 128.907 118.382 129.37H122.006C121.883 128.926 121.655 128.564 121.324 128.284C121.002 127.995 120.627 127.85 120.201 127.85Z" fill="white"/>
<path d="M132.078 132.946C131.623 133.323 131.154 133.598 130.671 133.771C130.197 133.945 129.667 134.032 129.08 134.032C128.521 134.032 127.995 133.931 127.502 133.728C127.019 133.525 126.598 133.25 126.238 132.903C125.887 132.555 125.608 132.145 125.399 131.672C125.2 131.19 125.101 130.673 125.101 130.123C125.101 129.583 125.196 129.076 125.385 128.603C125.584 128.12 125.854 127.705 126.195 127.358C126.536 127.001 126.939 126.721 127.403 126.518C127.876 126.315 128.379 126.214 128.909 126.214C129.43 126.214 129.913 126.32 130.358 126.533C130.813 126.735 131.201 127.015 131.523 127.372C131.855 127.729 132.111 128.159 132.291 128.661C132.48 129.153 132.575 129.689 132.575 130.268V130.789H127.062C127.194 131.262 127.45 131.643 127.829 131.933C128.208 132.222 128.653 132.367 129.165 132.367C129.487 132.367 129.79 132.314 130.074 132.208C130.358 132.102 130.6 131.952 130.799 131.759L132.078 132.946ZM128.866 127.85C128.421 127.85 128.038 127.99 127.715 128.27C127.393 128.54 127.171 128.907 127.048 129.37H130.671C130.548 128.926 130.32 128.564 129.989 128.284C129.667 127.995 129.293 127.85 128.866 127.85Z" fill="white"/>
<path d="M134.052 133.887V126.344H135.998V126.938C136.283 126.697 136.595 126.513 136.936 126.388C137.287 126.262 137.666 126.2 138.073 126.2C138.925 126.2 139.626 126.479 140.176 127.039C140.725 127.599 141 128.318 141 129.196V133.887H139.053V129.486C139.053 129.013 138.911 128.632 138.627 128.342C138.352 128.053 137.983 127.908 137.519 127.908C137.197 127.908 136.903 127.976 136.638 128.111C136.382 128.236 136.169 128.42 135.998 128.661V133.887H134.052Z" fill="white"/>
<path fill-rule="evenodd" clip-rule="evenodd" d="M146 4.59998H4V146.6H146V4.59998ZM150 0.599976V150.6H0V0.599976H150Z" fill="white"/>
</svg>
